\select@language {spanish}
\addvspace {10\p@ }
\addvspace {10\p@ }
\contentsline {table}{\numberline {2.1}{\ignorespaces An\'alisis modal de fallos y efectos , ETAPA 1: Ascenso}}{3}{table.2.1}
\contentsline {table}{\numberline {2.2}{\ignorespaces An\'alisis modal de fallos y efectos , ETAPA 2: Descenso}}{4}{table.2.2}
\contentsline {table}{\numberline {2.3}{\ignorespaces An\'alisis modal de fallos y efectos, ETAPA 4: Navegaci\'on}}{5}{table.2.3}
\addvspace {10\p@ }
\addvspace {10\p@ }
\addvspace {10\p@ }
\addvspace {10\p@ }
