Packet number,Gyroscope X (deg/s),Gyroscope Y (deg/s),Gyroscope Z (deg/s),Accelerometer X (g),Accelerometer Y (g),Accelerometer Z (g),Magnetometer X (G),Magnetometer Y (G),Magnetometer Z (G)
1,-0.35,0.14,-0.28,-0.001,0.001,0.257,0.13,0.0936364,0.542857
2,0.28,0,-0.21,-0.001,0.001,0.257,0.13,0.0936364,0.542857
3,0,0,-0.07,-0.001,0.001,0.257,0.13,0.0936364,0.542857
4,0.28,-0.21,0,-0.001,0.001,0.257,0.13,0.0936364,0.542857
5,0.14,-0.28,-0.14,-0.001,0.001,0.257,0.130909,0.0954545,0.540816
6,0.14,0,-0.21,-0.005,-0.003,0.253,0.130909,0.0954545,0.540816
7,0,0,-0.07,-0.005,-0.003,0.253,0.130909,0.0954545,0.540816
8,-0.14,-0.21,-0.21,-0.005,-0.003,0.253,0.130909,0.0954545,0.540816
9,0.07,0.07,-0.28,-0.005,-0.003,0.253,0.130909,0.0954545,0.540816
10,-0.14,-0.28,-0.21,-0.005,-0.003,0.253,0.130909,0.0954545,0.540816
11,0,0.07,0,-0.005,-0.003,0.253,0.130909,0.0954545,0.540816
12,-0.14,-0.14,-0.14,-0.005,-0.003,0.253,0.130909,0.0954545,0.540816
13,-0.14,0,-0.14,-0.005,-0.003,0.253,0.130909,0.0954545,0.540816
14,-0.07,-0.07,-0.07,-0.001,0.001,0.265,0.130909,0.0954545,0.540816
15,-0.21,0,-0.21,-0.001,0.001,0.265,0.130909,0.0954545,0.540816
16,-0.21,0,-0.21,-0.001,0.001,0.265,0.13,0.0963636,0.540816
17,0.21,0,0.14,-0.001,0.001,0.265,0.13,0.0963636,0.540816
18,0.14,-0.14,-0.07,-0.001,0.001,0.265,0.13,0.0963636,0.540816
19,-0.28,-0.21,-0.28,-0.001,0.001,0.265,0.13,0.0963636,0.540816
20,-0.28,-0.21,-0.21,-0.001,0.001,0.265,0.13,0.0963636,0.540816
21,-0.28,-0.28,-0.21,-0.001,0.001,0.265,0.13,0.0963636,0.540816
22,-0.07,-0.35,0.14,-0.001,0.013,0.249,0.13,0.0963636,0.540816
23,-0.07,0,0.21,-0.001,0.013,0.249,0.13,0.0963636,0.540816
24,0.28,0,0,-0.001,0.013,0.249,0.13,0.0963636,0.540816
25,-0.07,0.14,0.07,-0.001,0.013,0.249,0.13,0.0963636,0.540816
26,-0.35,-0.42,0.28,-0.001,0.013,0.249,0.13,0.0963636,0.540816
27,-0.21,-0.14,-0.21,-0.001,0.013,0.249,0.13,0.0963636,0.540816
28,-0.35,-0.28,0.07,-0.001,0.013,0.249,0.13,0.0963636,0.540816
29,-0.21,-0.49,-0.07,-0.001,0.013,0.249,0.13,0.0963636,0.540816
30,0.14,0.14,0.14,-0.001,0.013,0.249,0.13,0.0963636,0.540816
31,-0.21,-0.14,0.14,0.003,0.005,0.253,0.13,0.0963636,0.540816
32,0.21,0.14,-0.07,0.003,0.005,0.253,0.13,0.0963636,0.540816
33,0.35,-0.07,0.07,0.003,0.005,0.253,0.13,0.0963636,0.540816
34,0,0,-0.14,0.003,0.005,0.253,0.13,0.0963636,0.540816
35,0.07,0,0.07,0.003,0.005,0.253,0.13,0.0963636,0.540816
36,0,-0.14,0.14,0.003,0.005,0.253,0.13,0.0963636,0.540816
37,-0.35,0,-0.28,0.003,0.005,0.253,0.13,0.0963636,0.540816
38,-0.28,0.07,-0.21,0.003,0.005,0.253,0.13,0.0963636,0.540816
39,-0.07,0.07,0,-0.005,0.001,0.249,0.134545,0.0981818,0.542857
40,-0.07,-0.35,-0.28,-0.005,0.001,0.249,0.134545,0.0981818,0.542857
41,-0.49,-0.14,-0.21,-0.005,0.001,0.249,0.134545,0.0981818,0.542857
42,0.21,-0.07,-0.07,-0.005,0.001,0.249,0.134545,0.0981818,0.542857
43,0,0.07,-0.21,-0.005,0.001,0.249,0.134545,0.0981818,0.542857
44,-0.07,-0.28,-0.14,-0.005,0.001,0.249,0.134545,0.0981818,0.542857
45,0.21,0,0.07,-0.005,0.001,0.249,0.134545,0.0981818,0.542857
46,0,0.28,0.28,-0.005,0.001,0.249,0.134545,0.0981818,0.542857
47,-0.07,0.35,0,-0.005,0.001,0.257,0.134545,0.0981818,0.542857
48,-0.07,-0.21,0.07,0.007,0.001,0.257,0.134545,0.0981818,0.542857
49,0.07,0.07,-0.07,0.007,0.001,0.257,0.134545,0.0981818,0.542857
50,-0.14,0.14,-0.07,0.007,0.001,0.257,0.134545,0.0981818,0.542857
51,-0.14,0.07,-0.07,0.007,0.001,0.257,0.134545,0.0981818,0.542857
52,-0.07,-0.07,-0.42,0.007,0.001,0.257,0.134545,0.0981818,0.542857
53,0.35,-0.07,-0.35,0.007,0.001,0.257,0.134545,0.0981818,0.542857
54,0.35,0.14,-0.21,0.007,0.001,0.257,0.134545,0.0981818,0.542857
55,0.14,0.07,0.21,0.007,0.001,0.257,0.134545,0.0981818,0.542857
56,-0.21,0,0.14,-0.001,0.005,0.253,0.134545,0.0981818,0.542857
57,0.07,0,-0.21,-0.001,0.005,0.253,0.134545,0.0981818,0.542857
58,0.07,0.14,-0.14,-0.001,0.005,0.253,0.134545,0.0981818,0.542857
59,-0.21,0.21,-0.28,-0.001,0.005,0.253,0.134545,0.0981818,0.542857
60,0.14,0.21,-0.14,-0.001,0.005,0.253,0.134545,0.0981818,0.542857
61,0,-0.14,0.07,-0.001,0.005,0.253,0.134545,0.0981818,0.542857
62,-0.28,-0.21,-0.14,-0.001,0.005,0.253,0.134545,0.0981818,0.542857
63,-0.42,0.07,0.14,-0.001,0.005,0.253,0.134545,0.0981818,0.542857
64,-0.21,0,0.14,0.007,-0.003,0.257,0.134545,0.0981818,0.542857
65,-0.42,-0.42,-0.21,0.007,-0.003,0.257,0.134545,0.0981818,0.542857
66,0,-0.07,0.07,0.007,-0.003,0.257,0.134545,0.0981818,0.542857
67,0.07,0.07,-0.21,0.007,-0.003,0.257,0.134545,0.0981818,0.542857
68,0.14,0.14,-0.35,0.007,-0.003,0.257,0.134545,0.0981818,0.542857
69,-0.14,0.21,0.07,0.007,-0.003,0.257,0.134545,0.0981818,0.542857
70,-0.28,-0.14,-0.28,0.007,-0.003,0.257,0.134545,0.0981818,0.542857
71,-0.07,0.07,-0.28,0.007,-0.003,0.257,0.134545,0.0981818,0.542857
72,-0.07,0.21,-0.28,-0.005,0.009,0.257,0.134545,0.0981818,0.542857
73,-0.21,-0.14,0,-0.005,0.009,0.257,0.130909,0.0954545,0.539796
74,0.07,-0.07,-0.35,-0.005,0.009,0.257,0.130909,0.0954545,0.539796
75,-0.14,-0.14,-0.14,-0.005,0.009,0.257,0.130909,0.0954545,0.539796
76,0.14,-0.07,-0.35,-0.005,0.009,0.257,0.130909,0.0954545,0.539796
77,0,0.07,-0.21,-0.005,0.009,0.257,0.130909,0.0954545,0.539796
78,0.07,-0.07,-0.28,-0.005,0.009,0.257,0.130909,0.0954545,0.539796
79,-0.14,0.07,-0.14,-0.005,0.009,0.257,0.130909,0.0954545,0.539796
80,-0.21,0.07,-0.42,-0.005,0.009,0.257,0.130909,0.0954545,0.539796
81,-0.21,0,-0.14,-0.001,0.009,0.257,0.130909,0.0954545,0.539796
82,0.42,-0.21,-0.07,-0.001,0.009,0.257,0.130909,0.0954545,0.539796
83,0.14,0.14,-0.28,-0.001,0.009,0.257,0.130909,0.0954545,0.539796
84,-0.07,0.14,-0.49,-0.001,0.009,0.257,0.130909,0.0954545,0.539796
85,0.07,-0.07,-0.21,-0.001,0.009,0.257,0.130909,0.0954545,0.539796
86,0.28,-0.07,-0.14,-0.001,0.009,0.257,0.130909,0.0954545,0.539796
87,0.14,0.21,-0.35,-0.001,0.009,0.257,0.130909,0.0954545,0.539796
88,-0.07,-0.14,-0.21,-0.001,0.009,0.257,0.130909,0.0954545,0.539796
89,-0.21,-0.28,-0.14,0.003,0.001,0.261,0.130909,0.0954545,0.539796
90,0.07,0,-0.35,0.003,0.001,0.261,0.130909,0.0954545,0.539796
91,0.35,0.28,0.21,0.003,0.001,0.261,0.130909,0.0954545,0.539796
92,-0.21,0.28,-0.35,0.003,0.001,0.261,0.130909,0.0954545,0.539796
93,0.42,0.07,-0.28,0.003,0.001,0.261,0.130909,0.0954545,0.539796
94,0.14,0,-0.14,0.003,0.001,0.261,0.130909,0.0954545,0.539796
95,0.07,-0.21,-0.07,0.003,0.001,0.261,0.130909,0.0954545,0.539796
96,-0.07,0,0,0.003,0.001,0.261,0.129091,0.0963636,0.539796
97,-0.07,-0.14,-0.07,0.015,-0.007,0.249,0.129091,0.0963636,0.539796
98,0.21,-0.14,-0.07,0.015,-0.007,0.249,0.129091,0.0963636,0.539796
99,0.14,0.21,-0.14,0.015,-0.007,0.249,0.129091,0.0963636,0.539796
100,-0.07,0.14,-0.07,0.015,-0.007,0.249,0.129091,0.0963636,0.539796
101,-0.07,-0.21,0,0.015,-0.007,0.249,0.129091,0.0963636,0.539796
102,0,-0.07,-0.21,0.015,-0.007,0.249,0.129091,0.0963636,0.539796
103,0.07,-0.21,-0.07,0.015,-0.007,0.249,0.129091,0.0963636,0.539796
104,0.07,-0.07,-0.07,0.015,-0.007,0.249,0.129091,0.0963636,0.539796
105,0.21,0.07,-0.14,0.015,-0.011,0.245,0.129091,0.0963636,0.539796
106,0,0.28,-0.28,0.019,-0.011,0.245,0.129091,0.0963636,0.539796
107,-0.07,0.07,-0.21,0.019,-0.011,0.245,0.129091,0.0954545,0.540816
108,0,0.14,-0.42,0.019,-0.011,0.245,0.129091,0.0954545,0.540816
109,0.21,0,0,0.019,-0.011,0.245,0.129091,0.0954545,0.540816
110,0.28,-0.14,0.07,0.019,-0.011,0.245,0.129091,0.0954545,0.540816
111,0.14,-0.07,-0.07,0.019,-0.011,0.245,0.129091,0.0954545,0.540816
112,-0.14,-0.07,-0.14,0.019,-0.011,0.245,0.129091,0.0954545,0.540816
113,0,0,-0.21,0.019,-0.011,0.245,0.129091,0.0954545,0.540816
114,0,0,-0.14,-0.001,0.001,0.253,0.129091,0.0954545,0.540816
115,-0.28,-0.07,0,-0.001,0.001,0.253,0.129091,0.0954545,0.540816
116,-0.21,0.07,-0.35,-0.001,0.001,0.253,0.129091,0.0954545,0.540816
117,-0.21,-0.14,-0.07,-0.001,0.001,0.253,0.129091,0.0954545,0.540816
118,-0.14,0,-0.28,-0.001,0.001,0.253,0.129091,0.0954545,0.540816
119,-0.28,-0.28,-0.21,-0.001,0.001,0.253,0.129091,0.0954545,0.540816
120,0,0.07,-0.07,-0.001,0.001,0.253,0.129091,0.0954545,0.540816
121,0.28,0.28,0,-0.001,0.001,0.253,0.129091,0.0954545,0.540816
122,-0.21,0.21,-0.07,0.003,-0.003,0.249,0.129091,0.0954545,0.540816
123,-0.35,0,-0.07,0.003,-0.003,0.249,0.129091,0.0954545,0.540816
124,-0.07,-0.07,-0.21,0.003,-0.003,0.249,0.129091,0.0954545,0.540816
125,-0.14,-0.28,-0.42,0.003,-0.003,0.249,0.129091,0.0954545,0.540816
126,-0.07,-0.14,-0.21,0.003,-0.003,0.249,0.129091,0.0954545,0.540816
127,-0.28,-0.28,0.07,0.003,-0.003,0.249,0.129091,0.0954545,0.540816
128,-0.21,-0.21,0,0.003,-0.003,0.249,0.129091,0.0954545,0.540816
129,0.21,-0.14,-0.07,0.003,-0.003,0.249,0.129091,0.0954545,0.540816
130,-0.56,0,-0.14,0.003,0.005,0.253,0.13,0.0927273,0.539796
131,-0.14,-0.14,-0.07,0.003,0.005,0.253,0.13,0.0927273,0.539796
132,0,-0.07,-0.35,0.003,0.005,0.253,0.13,0.0927273,0.539796
133,0.07,0.35,-0.14,0.003,0.005,0.253,0.13,0.0927273,0.539796
134,0.07,0,0,0.003,0.005,0.253,0.13,0.0927273,0.539796
135,-0.21,-0.14,-0.28,0.003,0.005,0.253,0.13,0.0927273,0.539796
136,-0.07,-0.21,0.14,0.003,0.005,0.253,0.13,0.0927273,0.539796
137,-0.21,-0.35,0,0.003,0.005,0.253,0.13,0.0927273,0.539796
138,0.7,-0.35,3.57,0.003,0.005,0.253,0.13,0.0927273,0.539796
139,1.4,-0.84,12.67,-0.021,0.033,0.301,0.13,0.0927273,0.539796
140,2.1,-0.77,13.79,-0.021,0.033,0.301,0.13,0.0927273,0.539796
141,1.4,-0.07,11.34,-0.021,0.033,0.301,0.13,0.0927273,0.539796
142,-0.28,0.21,9.24,-0.021,0.033,0.301,0.13,0.0927273,0.539796
143,-0.14,-0.07,6.65,-0.021,0.033,0.301,0.13,0.0927273,0.539796
144,0.28,-0.49,3.85,-0.021,0.033,0.301,0.13,0.0927273,0.539796
145,0.56,0,5.88,-0.021,0.033,0.301,0.13,0.0927273,0.539796
146,0.7,0.35,8.96,-0.021,0.033,0.301,0.13,0.0927273,0.539796
147,0.28,-0.21,7.56,0.047,-0.031,0.305,0.13,0.0927273,0.539796
148,1.33,-1.89,3.01,0.047,-0.031,0.305,0.13,0.0927273,0.539796
149,1.26,-1.33,-4.69,0.047,-0.031,0.305,0.13,0.0927273,0.539796
150,1.47,-1.26,-2.59,0.047,-0.031,0.305,0.13,0.0927273,0.539796
151,3.29,-6.23,4.9,0.047,-0.031,0.305,0.13,0.0927273,0.539796
152,2.52,-2.73,7.42,0.047,-0.031,0.305,0.13,0.0927273,0.539796
153,-3.78,3.15,6.44,0.047,-0.031,0.305,0.13,0.0927273,0.539796
154,-8.82,3.43,3.99,0.047,-0.031,0.305,0.13,0.0927273,0.539796
155,-11.27,5.32,3.99,-0.049,0.017,-0.135,0.13,0.0927273,0.539796
156,-10.92,9.94,2.31,-0.049,0.017,-0.135,0.13,0.0927273,0.539796
157,-6.58,8.47,-1.61,-0.049,0.017,-0.135,0.13,0.0927273,0.539796
158,0.63,5.95,-0.7,-0.049,0.017,-0.135,0.13,0.0927273,0.539796
159,1.33,9.38,-1.4,-0.049,0.017,-0.135,0.13,0.0927273,0.539796
160,0.63,8.12,-2.38,-0.049,0.017,-0.135,0.13,0.0927273,0.539796
161,-0.49,4.9,-2.45,-0.049,0.017,-0.135,0.13,0.0927273,0.539796
162,0.7,2.94,-0.98,-0.049,0.017,-0.135,0.13,0.0927273,0.539796
163,1.47,0.7,2.52,0.067,0.077,0.225,0.13,0.0927273,0.539796
164,3.99,-0.98,9.52,0.067,0.077,0.225,0.145455,0.122727,0.52551
165,5.32,-0.98,11.48,0.067,0.077,0.225,0.145455,0.122727,0.52551
166,4.06,1.05,15.33,0.067,0.077,0.225,0.145455,0.122727,0.52551
167,-0.35,2.59,17.92,0.067,0.077,0.225,0.145455,0.122727,0.52551
168,-4.2,3.43,14.14,0.067,0.077,0.225,0.145455,0.122727,0.52551
169,-9.1,-6.93,11.06,0.067,0.077,0.225,0.145455,0.122727,0.52551
170,-12.95,-23.87,9.87,0.067,0.077,0.225,0.145455,0.122727,0.52551
171,-15.54,-36.54,8.89,0.067,0.077,0.225,0.145455,0.122727,0.52551
172,-17.71,-44.87,5.46,-0.169,-0.019,-0.311,0.145455,0.122727,0.52551
173,-10.99,-33.32,4.2,-0.169,-0.019,-0.311,0.145455,0.122727,0.52551
174,1.33,-15.75,4.76,-0.169,-0.019,-0.311,0.145455,0.122727,0.52551
175,11.69,-1.68,4.97,-0.169,-0.019,-0.311,0.145455,0.122727,0.52551
176,16.03,7.28,5.39,-0.169,-0.019,-0.311,0.145455,0.122727,0.52551
177,19.11,11.06,7.28,-0.169,-0.019,-0.311,0.145455,0.122727,0.52551
178,21,8.54,8.96,-0.169,-0.019,-0.311,0.145455,0.122727,0.52551
179,21.42,0.07,11.34,-0.169,-0.019,-0.311,0.145455,0.122727,0.52551
180,20.3,-11.9,12.67,-0.037,0.021,0.025,0.145455,0.122727,0.52551
181,14.56,-9.66,13.44,-0.037,0.021,0.025,0.145455,0.122727,0.52551
182,14.84,-8.05,14,-0.037,0.021,0.025,0.145455,0.122727,0.52551
183,16.17,-10.92,15.68,-0.037,0.021,0.025,0.145455,0.122727,0.52551
184,13.16,-10.5,18.27,-0.037,0.021,0.025,0.145455,0.122727,0.52551
185,10.92,-5.74,18.48,-0.037,0.021,0.025,0.145455,0.122727,0.52551
186,7.84,-7.42,19.53,-0.037,0.021,0.025,0.145455,0.122727,0.52551
187,3.57,-6.51,21.98,-0.037,0.021,0.025,0.145455,0.122727,0.52551
188,-8.26,-14.21,22.82,-0.013,0.045,0.281,0.145455,0.122727,0.52551
189,-12.88,-13.72,22.68,-0.013,0.045,0.281,0.145455,0.122727,0.52551
190,-14.07,-9.52,21.77,-0.013,0.045,0.281,0.145455,0.122727,0.52551
191,-12.25,-3.22,19.39,-0.013,0.045,0.281,0.145455,0.122727,0.52551
192,-7.7,2.17,17.29,-0.013,0.045,0.281,0.145455,0.122727,0.52551
193,-4.76,7.56,16.66,-0.013,0.045,0.281,0.145455,0.122727,0.52551
194,-3.71,33.53,13.44,-0.013,0.045,0.281,0.145455,0.122727,0.52551
195,-4.83,27.09,11.41,-0.013,0.045,0.281,0.145455,0.122727,0.52551
196,-9.66,28.28,9.94,-0.013,0.045,0.329,0.145455,0.122727,0.52551
197,-11.27,27.09,8.89,0.079,-0.039,0.333,0.145455,0.122727,0.52551
198,-11.27,23.59,9.24,0.079,-0.039,0.333,0.176364,0.395455,-0.117347
199,-11.13,18.97,10.71,0.079,-0.039,0.333,0.176364,0.395455,-0.117347
200,-11.62,11.83,11.97,0.079,-0.039,0.333,0.176364,0.395455,-0.117347
201,-10.5,4.69,12.74,0.079,-0.039,0.333,0.176364,0.395455,-0.117347
202,-10.5,4.62,14.07,0.079,-0.039,0.333,0.176364,0.395455,-0.117347
203,-8.54,3.99,14.98,0.079,-0.039,0.333,0.176364,0.395455,-0.117347
204,-11.97,2.45,14.07,0.079,-0.039,0.333,0.176364,0.395455,-0.117347
205,-15.82,1.4,12.81,-0.033,-0.047,0.273,0.176364,0.395455,-0.117347
206,-19.74,1.33,11.27,-0.033,-0.047,0.273,0.176364,0.395455,-0.117347
207,-21.7,-0.84,9.24,-0.033,-0.047,0.273,0.176364,0.395455,-0.117347
208,-23.59,-6.65,8.26,-0.033,-0.047,0.273,0.176364,0.395455,-0.117347
209,-23.87,-7.28,5.6,-0.033,-0.047,0.273,0.176364,0.395455,-0.117347
210,-2.52,5.04,4.83,-0.033,-0.047,0.273,0.176364,0.395455,-0.117347
211,-6.3,8.33,5.11,-0.033,-0.047,0.273,0.176364,0.395455,-0.117347
212,-0.42,7.77,6.93,-0.033,-0.047,0.273,0.176364,0.395455,-0.117347
213,1.68,5.18,8.75,0.083,-0.055,0.341,0.176364,0.395455,-0.117347
214,-0.35,0.35,9.59,0.083,-0.055,0.341,0.176364,0.395455,-0.117347
215,-1.54,-3.64,8.82,0.083,-0.055,0.341,0.176364,0.395455,-0.117347
216,0.35,-1.05,6.37,0.083,-0.055,0.341,0.176364,0.395455,-0.117347
217,4.76,1.96,3.22,0.083,-0.055,0.341,0.176364,0.395455,-0.117347
218,14.21,10.85,0.91,0.083,-0.055,0.341,0.176364,0.395455,-0.117347
219,14.98,11.06,-0.7,0.083,-0.055,0.341,0.176364,0.395455,-0.117347
220,11.97,5.67,-1.26,0.083,-0.055,0.341,0.176364,0.395455,-0.117347
221,8.33,2.1,-0.63,0.083,-0.055,0.429,0.11,0.444545,-0.158163
222,3.64,1.26,-0.35,0.123,-0.019,0.429,0.11,0.444545,-0.158163
223,-1.33,0.7,0.14,0.123,-0.019,0.429,0.11,0.444545,-0.158163
224,-4.83,0.28,-0.21,0.123,-0.019,0.429,0.11,0.444545,-0.158163
225,-5.95,-0.77,-0.91,0.123,-0.019,0.429,0.11,0.444545,-0.158163
226,-6.79,-0.98,-0.77,0.123,-0.019,0.429,0.11,0.444545,-0.158163
227,-7.84,-0.77,0,0.123,-0.019,0.429,0.11,0.444545,-0.158163
228,-9.03,0.56,0.28,0.123,-0.019,0.429,0.11,0.444545,-0.158163
229,-9.45,2.87,0.77,0.123,-0.019,0.429,0.11,0.444545,-0.158163
230,-8.47,5.95,0.7,-0.009,0.013,0.509,0.11,0.444545,-0.158163
231,-6.3,7.35,0.28,-0.009,0.013,0.509,0.11,0.444545,-0.158163
232,-1.82,9.24,-1.33,-0.009,0.013,0.509,0.103636,0.447273,-0.159184
233,7.91,10.15,-1.61,-0.009,0.013,0.509,0.103636,0.447273,-0.159184
234,8.75,10.22,-2.8,-0.009,0.013,0.509,0.103636,0.447273,-0.159184
235,7.21,9.59,-3.36,-0.009,0.013,0.509,0.103636,0.447273,-0.159184
236,4.62,7.21,-3.78,-0.009,0.013,0.509,0.103636,0.447273,-0.159184
237,2.45,4.48,-3.71,-0.009,0.013,0.509,0.103636,0.447273,-0.159184
238,-0.14,2.17,-2.38,-0.017,-0.047,0.357,0.103636,0.447273,-0.159184
239,-2.17,1.12,-1.26,-0.017,-0.047,0.357,0.103636,0.447273,-0.159184
240,-6.02,-1.4,0.21,-0.017,-0.047,0.357,0.103636,0.447273,-0.159184
241,-7.21,-2.94,1.33,-0.017,-0.047,0.357,0.103636,0.447273,-0.159184
242,-7.42,-3.71,2.17,-0.017,-0.047,0.357,0.103636,0.447273,-0.159184
243,0,-0.42,19.81,-0.049,-0.063,0.213,0.0445455,0.49,-0.176531
244,0.84,18.9,19.53,-0.049,-0.063,0.213,0.0445455,0.49,-0.176531
245,1.4,4.06,18.69,-0.049,-0.063,0.213,0.0445455,0.49,-0.176531
246,0.98,4.06,18.48,-0.049,-0.063,0.213,0.0445455,0.49,-0.176531
247,1.19,2.59,18.48,-0.049,-0.063,0.213,0.0445455,0.49,-0.176531
248,1.61,1.19,18.13,-0.049,-0.063,0.213,0.0445455,0.49,-0.176531
249,1.05,0.56,17.22,-0.009,-0.051,0.261,0.0445455,0.49,-0.176531
250,1.54,0.77,15.96,-0.009,-0.051,0.261,0.0445455,0.49,-0.176531
251,1.96,-0.14,15.68,-0.009,-0.051,0.261,0.0445455,0.49,-0.176531
252,0.21,-1.96,16.1,-0.009,-0.051,0.261,0.0445455,0.49,-0.176531
253,0.56,-2.59,16.38,-0.009,-0.051,0.261,0.0445455,0.49,-0.176531
254,1.05,-2.1,16.31,-0.009,-0.051,0.261,0.0254545,0.498182,-0.17551
255,0.7,-1.68,15.96,-0.009,-0.051,0.261,0.0254545,0.498182,-0.17551
256,0.84,-1.96,15.54,-0.009,-0.051,0.261,0.0254545,0.498182,-0.17551
257,1.12,-3.15,14.63,-0.013,-0.051,0.257,0.0254545,0.498182,-0.17551
258,1.4,-3.15,14.35,-0.013,-0.051,0.257,0.0254545,0.498182,-0.17551
259,-0.07,-0.35,14.07,-0.013,-0.051,0.257,0.0254545,0.498182,-0.17551
260,1.05,2.1,13.16,-0.013,-0.051,0.257,0.0254545,0.498182,-0.17551
261,2.52,3.29,12.11,-0.013,-0.051,0.257,0.0254545,0.498182,-0.17551
262,4.06,2.17,12.04,-0.013,-0.051,0.257,0.0254545,0.498182,-0.17551
263,4.69,0.56,12.18,-0.013,-0.051,0.257,0.0254545,0.498182,-0.17551
264,3.85,-1.47,12.6,-0.013,-0.051,0.257,0.0254545,0.498182,-0.17551
265,2.17,-2.8,13.3,-0.077,-0.051,0.241,0.0254545,0.498182,-0.17551
266,1.82,-3.01,13.09,-0.077,-0.051,0.241,0.0254545,0.498182,-0.17551
267,2.31,-0.77,12.67,-0.077,-0.051,0.241,0.0254545,0.498182,-0.17551
268,1.75,1.82,12.11,-0.077,-0.051,0.241,0.0254545,0.498182,-0.17551
269,2.03,4.48,10.99,-0.077,-0.051,0.241,0.0254545,0.498182,-0.17551
270,2.52,5.74,10.01,-0.077,-0.051,0.241,0.0254545,0.498182,-0.17551
271,3.57,5.81,9.24,-0.077,-0.051,0.241,0.0254545,0.498182,-0.17551
272,4.97,3.92,10.15,-0.077,-0.051,0.241,0.0254545,0.498182,-0.17551
273,7.35,-0.56,10.08,-0.077,-0.051,0.241,0.0254545,0.498182,-0.17551
274,8.26,-3.08,10.57,-0.037,-0.035,0.249,0.0254545,0.498182,-0.17551
275,7.21,-4.55,11.62,-0.037,-0.035,0.249,0.0254545,0.498182,-0.17551
276,7.42,-5.04,12.11,-0.037,-0.035,0.249,0.0254545,0.498182,-0.17551
277,8.68,-3.29,11.9,-0.037,-0.035,0.249,0.0254545,0.498182,-0.17551
278,9.03,-0.63,11.34,-0.037,-0.035,0.249,0.0254545,0.498182,-0.17551
279,7.84,0.35,10.78,-0.037,-0.035,0.249,0.0254545,0.498182,-0.17551
280,5.74,18.69,11.13,-0.037,-0.035,0.249,0.0254545,0.498182,-0.17551
281,2.8,1.26,11.2,-0.037,-0.035,0.249,0.0254545,0.498182,-0.17551
282,1.12,1.61,11.27,-0.037,-0.019,0.269,0.0254545,0.498182,-0.17551
283,0.84,2.73,11.41,-0.037,-0.019,0.269,0.0254545,0.498182,-0.17551
284,0.63,3.5,11.13,-0.037,-0.019,0.269,0.0254545,0.498182,-0.17551
285,-0.77,2.94,11.06,-0.037,-0.019,0.269,0.0254545,0.498182,-0.17551
286,-1.26,2.24,10.15,-0.037,-0.019,0.269,0.0254545,0.498182,-0.17551
287,-0.42,2.59,8.19,-0.037,-0.019,0.269,0.0254545,0.498182,-0.17551
288,1.68,3.01,7.07,-0.037,-0.019,0.269,-0.0181818,0.510909,-0.169388
289,8.26,1.33,6.93,-0.037,-0.019,0.269,-0.0181818,0.510909,-0.169388
290,7.28,-0.21,7.63,-0.053,0.005,0.221,-0.0181818,0.510909,-0.169388
291,3.57,-3.15,8.82,-0.057,0.005,0.221,-0.0181818,0.510909,-0.169388
292,0.7,-5.6,9.59,-0.057,0.005,0.221,-0.0181818,0.510909,-0.169388
293,-0.63,-5.25,9.94,-0.057,0.005,0.221,-0.0181818,0.510909,-0.169388
294,0.49,-2.73,11.2,-0.057,0.005,0.221,-0.0181818,0.510909,-0.169388
295,2.66,-2.52,10.92,-0.057,0.005,0.221,-0.0181818,0.510909,-0.169388
296,2.59,1.05,10.08,-0.057,0.005,0.221,-0.0181818,0.510909,-0.169388
297,7.84,4.97,8.54,-0.057,0.005,0.221,-0.0181818,0.510909,-0.169388
298,8.33,10.43,8.05,-0.057,0.005,0.221,-0.0181818,0.510909,-0.169388
299,8.26,11.76,8.54,-0.125,0.041,0.277,-0.0181818,0.510909,-0.169388
300,7,11.9,9.38,-0.125,0.041,0.277,-0.0181818,0.510909,-0.169388
301,3.15,10.71,9.66,-0.125,0.041,0.277,-0.0181818,0.510909,-0.169388
302,2.8,-13.16,5.11,-0.125,0.041,0.277,-0.0181818,0.510909,-0.169388
303,2.94,-11.34,2.87,-0.125,0.041,0.277,-0.0181818,0.510909,-0.169388
304,-8.75,-20.02,1.75,-0.125,0.041,0.277,-0.0181818,0.510909,-0.169388
305,-14.42,-25.06,0.91,-0.125,0.041,0.277,-0.0181818,0.510909,-0.169388
306,-14.42,-25.83,0.28,-0.053,0.009,0.305,-0.0181818,0.510909,-0.169388
307,-12.95,-25.69,1.12,-0.053,0.009,0.305,-0.0181818,0.510909,-0.169388
308,-10.5,-24.99,1.54,-0.053,0.009,0.305,-0.0181818,0.510909,-0.169388
309,-8.82,-23.59,2.52,-0.053,0.009,0.305,-0.0181818,0.510909,-0.169388
310,-7.91,-16.17,3.01,-0.053,0.009,0.305,-0.0345455,0.511818,-0.163265
311,3.01,-10.29,3.78,-0.053,0.009,0.305,-0.0345455,0.511818,-0.163265
312,11.55,-7.63,4.27,-0.053,0.009,0.305,-0.0345455,0.511818,-0.163265
313,13.51,-10.92,3.64,-0.053,0.009,0.305,-0.0345455,0.511818,-0.163265
314,15.19,-10.15,3.15,-0.001,-0.035,0.293,-0.0345455,0.511818,-0.163265
315,17.92,-5.11,2.03,-0.001,-0.035,0.293,-0.0345455,0.511818,-0.163265
316,20.58,0.42,0.91,-0.001,-0.035,0.293,-0.0345455,0.511818,-0.163265
317,22.12,-4.27,1.4,-0.001,-0.035,0.293,-0.0345455,0.511818,-0.163265
318,16.52,-5.81,2.87,-0.001,-0.035,0.293,-0.0345455,0.511818,-0.163265
319,12.67,-1.68,4.27,-0.001,-0.035,0.293,-0.0345455,0.511818,-0.163265
320,10.08,4.76,4.48,-0.001,-0.035,0.293,-0.0345455,0.511818,-0.163265
321,8.47,8.61,4.69,-0.001,-0.035,0.293,-0.0345455,0.511818,-0.163265
322,7.21,8.96,4.41,-0.001,-0.035,0.261,-0.0345455,0.511818,-0.163265
323,5.18,10.5,3.64,-0.029,0.013,0.269,-0.0345455,0.511818,-0.163265
324,1.96,13.79,2.1,-0.029,0.013,0.269,-0.0345455,0.511818,-0.163265
325,-18.34,21.42,1.47,-0.029,0.013,0.269,-0.0345455,0.511818,-0.163265
326,-4.55,27.79,0.91,-0.029,0.013,0.269,-0.0345455,0.511818,-0.163265
327,-4.34,32.34,-0.98,-0.029,0.013,0.269,-0.0345455,0.511818,-0.163265
328,-2.24,27.65,-4.62,-0.029,0.013,0.269,-0.0345455,0.511818,-0.163265
329,-0.77,16.59,-8.26,-0.029,0.013,0.269,-0.0345455,0.511818,-0.163265
330,-0.98,5.11,-7.84,-0.029,0.013,0.269,-0.0345455,0.511818,-0.163265
331,-1.05,-0.28,-1.47,-0.037,-0.155,0.341,-0.0345455,0.511818,-0.163265
332,-7.63,2.87,1.82,-0.037,-0.155,0.341,-0.0345455,0.511818,-0.163265
333,-14.91,6.79,2.59,-0.037,-0.155,0.341,-0.0345455,0.511818,-0.163265
334,-22.33,8.4,0,-0.037,-0.155,0.341,-0.0345455,0.511818,-0.163265
335,-25.83,10.92,-3.78,-0.037,-0.155,0.341,-0.0345455,0.511818,-0.163265
336,-23.94,12.39,-8.05,-0.037,-0.155,0.341,-0.0345455,0.511818,-0.163265
337,-18.34,16.66,-12.11,-0.037,-0.155,0.341,-0.0345455,0.511818,-0.163265
338,-16.45,2.87,-19.46,-0.037,-0.155,0.341,-0.0345455,0.511818,-0.163265
339,-36.05,4.97,-16.45,0.015,-0.203,0.317,-0.0345455,0.511818,-0.163265
340,-19.11,0.28,-10.5,0.015,-0.203,0.317,-0.0345455,0.511818,-0.163265
341,-17.36,-4.27,-5.46,0.015,-0.203,0.317,-0.0345455,0.511818,-0.163265
342,-18.48,-3.5,-3.15,0.015,-0.203,0.317,-0.0345455,0.511818,-0.163265
343,-22.61,1.05,-2.31,0.015,-0.203,0.317,-0.0345455,0.511818,-0.163265
344,-28,1.89,-3.5,0.015,-0.203,0.317,-0.0463636,0.504545,-0.158163
345,-34.23,-0.7,-1.82,0.015,-0.203,0.317,-0.0463636,0.504545,-0.158163
346,-31.64,5.39,-2.45,0.015,-0.203,0.317,-0.0463636,0.504545,-0.158163
347,-11.41,8.47,-3.71,0.015,-0.203,0.225,-0.0463636,0.504545,-0.158163
348,-7.14,8.75,-4.9,-0.153,-0.203,0.225,-0.0463636,0.504545,-0.158163
349,-6.86,9.52,-4.83,-0.153,-0.203,0.225,-0.0463636,0.504545,-0.158163
350,-5.46,5.11,-3.92,-0.153,-0.203,0.225,-0.0463636,0.504545,-0.158163
351,-2.45,1.96,-3.78,-0.153,-0.203,0.225,-0.0463636,0.504545,-0.158163
352,2.73,-0.77,-3.85,-0.153,-0.203,0.225,-0.0463636,0.504545,-0.158163
353,8.75,-6.58,-1.33,-0.153,-0.203,0.225,-0.0463636,0.504545,-0.158163
354,11.69,-14.14,0.49,-0.153,-0.203,0.225,-0.0463636,0.504545,-0.158163
355,17.22,-15.54,0.84,-0.153,-0.203,0.225,-0.0463636,0.504545,-0.158163
356,16.87,-14.7,-0.35,-0.097,-0.031,0.313,-0.0463636,0.504545,-0.158163
357,13.93,-10.22,-1.54,-0.097,-0.031,0.313,-0.0463636,0.504545,-0.158163
358,8.61,-2.73,-4.27,-0.097,-0.031,0.313,-0.0463636,0.504545,-0.158163
359,3.85,1.82,-7.49,-0.097,-0.031,0.313,-0.0463636,0.504545,-0.158163
360,-0.42,4.76,-9.17,-0.097,-0.031,0.313,-0.0463636,0.504545,-0.158163
361,-1.61,7.49,-10.85,-0.097,-0.031,0.313,-0.0463636,0.504545,-0.158163
362,0.56,8.89,-10.92,-0.097,-0.031,0.313,-0.0463636,0.504545,-0.158163
363,-1.82,4.06,-9.59,-0.097,-0.031,0.313,-0.0463636,0.504545,-0.158163
364,-4.48,-2.73,-7.84,-0.045,-0.071,0.241,-0.0463636,0.504545,-0.158163
365,-4.62,-7.77,-6.79,-0.045,-0.071,0.241,-0.0463636,0.504545,-0.158163
366,-0.63,-9.31,-6.86,-0.045,-0.071,0.241,-0.0463636,0.504545,-0.158163
367,6.79,-4.2,-6.86,-0.045,-0.071,0.241,-0.0354545,0.507273,-0.157143
368,15.4,1.33,-6.44,-0.045,-0.071,0.241,-0.0354545,0.507273,-0.157143
369,18.27,9.73,-6.09,-0.045,-0.071,0.241,-0.0354545,0.507273,-0.157143
370,13.93,9.38,-3.92,-0.045,-0.071,0.241,-0.0354545,0.507273,-0.157143
371,9.87,3.5,-1.75,-0.045,-0.071,0.241,-0.0354545,0.507273,-0.157143
372,6.72,-1.05,-1.05,-0.069,0.009,0.221,-0.0354545,0.507273,-0.157143
373,14.21,-0.42,-0.49,-0.069,0.009,0.221,-0.0354545,0.507273,-0.157143
374,19.53,8.33,0,-0.069,0.009,0.221,-0.0354545,0.507273,-0.157143
375,19.11,11.41,0.35,-0.069,0.009,0.221,-0.0354545,0.507273,-0.157143
376,16.66,8.05,-1.4,-0.069,0.009,0.221,-0.0354545,0.507273,-0.157143
377,5.81,-0.56,-1.54,-0.069,0.009,0.221,-0.0354545,0.507273,-0.157143
378,1.33,0.77,-1.4,-0.069,0.009,0.221,-0.0345455,0.513636,-0.144898
379,-0.07,4.55,-0.7,-0.069,0.009,0.221,-0.0345455,0.513636,-0.144898
380,0.21,9.73,-0.42,-0.069,0.009,0.221,-0.0345455,0.513636,-0.144898
381,0.98,13.23,-0.14,-0.081,-0.019,0.265,-0.0345455,0.513636,-0.144898
382,0.49,13.51,0.56,-0.081,-0.019,0.265,-0.0345455,0.513636,-0.144898
383,0.49,10.22,1.47,-0.081,-0.019,0.265,-0.0345455,0.513636,-0.144898
384,-0.49,7.7,1.75,-0.081,-0.019,0.265,-0.0345455,0.513636,-0.144898
385,-1.05,8.33,1.61,-0.081,-0.019,0.265,-0.0345455,0.513636,-0.144898
386,0.07,6.37,1.61,-0.081,-0.019,0.265,-0.0345455,0.513636,-0.144898
387,1.68,3.15,1.19,-0.081,-0.019,0.265,-0.0345455,0.513636,-0.144898
388,2.87,1.54,1.54,-0.081,-0.019,0.265,-0.0345455,0.513636,-0.144898
389,4.06,1.33,0.77,-0.109,-0.015,0.265,-0.0345455,0.513636,-0.144898
390,4.69,0.84,-0.21,-0.109,-0.015,0.265,-0.0345455,0.513636,-0.144898
391,3.71,0.07,-0.42,-0.109,-0.015,0.265,-0.0345455,0.513636,-0.144898
392,0.07,0.21,0,-0.109,-0.015,0.265,-0.0345455,0.513636,-0.144898
393,-1.05,0.07,0.84,-0.109,-0.015,0.265,-0.0345455,0.513636,-0.144898
394,0.42,0.91,2.31,-0.109,-0.015,0.265,-0.0345455,0.513636,-0.144898
395,2.17,1.33,3.5,-0.109,-0.015,0.265,-0.0345455,0.513636,-0.144898
396,3.29,1.12,4.13,-0.109,-0.015,0.265,-0.0345455,0.513636,-0.144898
397,3.78,1.47,4.55,-0.077,-0.031,0.333,-0.0345455,0.513636,-0.144898
398,4.69,2.59,2.59,-0.077,-0.031,0.333,-0.0345455,0.513636,-0.144898
399,6.37,1.54,2.03,-0.077,-0.031,0.333,-0.0345455,0.513636,-0.144898
400,3.08,-0.21,1.82,-0.077,-0.031,0.333,-0.0345455,0.513636,-0.144898
401,0.42,-1.96,2.1,-0.077,-0.031,0.333,-0.0454545,0.514545,-0.145918
402,-0.77,-3.15,2.45,-0.077,-0.031,0.333,-0.0454545,0.514545,-0.145918
403,-1.96,-3.64,2.59,-0.077,-0.031,0.333,-0.0454545,0.514545,-0.145918
404,-3.01,-2.8,2.73,-0.077,-0.031,0.333,-0.0454545,0.514545,-0.145918
405,-2.66,-2.66,1.89,-0.077,-0.031,0.381,-0.0454545,0.514545,-0.145918
406,-1.96,0.63,1.47,-0.089,-0.023,0.381,-0.0454545,0.514545,-0.145918
407,-1.54,2.66,0.84,-0.089,-0.023,0.381,-0.0454545,0.514545,-0.145918
408,-0.84,4.97,0,-0.089,-0.023,0.381,-0.0454545,0.514545,-0.145918
409,-0.49,5.81,-0.28,-0.089,-0.023,0.381,-0.0454545,0.514545,-0.145918
410,0.07,5.6,0.07,-0.089,-0.023,0.381,-0.0454545,0.514545,-0.145918
411,0.77,4.76,0.49,-0.089,-0.023,0.381,-0.0454545,0.514545,-0.145918
412,0.35,2.38,2.03,-0.089,-0.023,0.381,-0.0481818,0.519091,-0.142857
413,-1.47,-3.43,2.1,-0.089,-0.023,0.381,-0.0481818,0.519091,-0.142857
414,-4.48,-6.79,2.1,-0.093,-0.047,0.341,-0.0481818,0.519091,-0.142857
415,-4.13,-8.82,2.45,-0.093,-0.047,0.341,-0.0481818,0.519091,-0.142857
416,-2.94,-8.82,2.94,-0.093,-0.047,0.341,-0.0481818,0.519091,-0.142857
417,-2.17,-8.82,3.71,-0.093,-0.047,0.341,-0.0481818,0.519091,-0.142857
418,-1.89,-11.62,4.62,-0.093,-0.047,0.341,-0.0481818,0.519091,-0.142857
419,-2.59,-12.81,4.76,-0.093,-0.047,0.341,-0.0481818,0.519091,-0.142857
420,-3.71,-11.62,3.29,-0.093,-0.047,0.341,-0.0481818,0.519091,-0.142857
421,-3.15,-5.95,2.17,-0.093,-0.047,0.341,-0.0481818,0.519091,-0.142857
422,-1.89,-1.26,2.24,-0.065,-0.003,0.341,-0.0481818,0.519091,-0.142857
423,-0.28,2.24,2.52,-0.065,-0.003,0.341,-0.0481818,0.519091,-0.142857
424,0.91,3.29,2.52,-0.065,-0.003,0.341,-0.0481818,0.519091,-0.142857
425,1.12,2.24,3.71,-0.065,-0.003,0.341,-0.0481818,0.519091,-0.142857
426,-0.98,-1.89,4.55,-0.065,-0.003,0.341,-0.0481818,0.519091,-0.142857
427,-3.01,-10.99,3.78,-0.065,-0.003,0.341,-0.0481818,0.519091,-0.142857
428,-3.08,-9.1,3.29,-0.065,-0.003,0.341,-0.0481818,0.519091,-0.142857
429,-2.59,-2.73,2.52,-0.065,-0.003,0.341,-0.0481818,0.519091,-0.142857
430,-1.96,3.29,1.89,-0.093,-0.011,0.333,-0.0481818,0.519091,-0.142857
431,-2.03,5.88,1.19,-0.093,-0.011,0.333,-0.0481818,0.519091,-0.142857
432,-2.73,3.71,1.96,-0.093,-0.011,0.333,-0.0481818,0.519091,-0.142857
433,-3.78,-2.17,3.36,-0.093,-0.011,0.333,-0.0481818,0.519091,-0.142857
434,-5.6,-27.65,6.37,-0.093,-0.011,0.333,-0.0481818,0.519091,-0.142857
435,-7.7,-25.34,7.14,-0.093,-0.011,0.333,-0.0472727,0.538182,-0.145918
436,-4.27,-27.23,6.02,-0.093,-0.011,0.333,-0.0472727,0.538182,-0.145918
437,-0.21,-22.61,4.06,-0.093,-0.011,0.333,-0.0472727,0.538182,-0.145918
438,3.01,-11.62,2.52,-0.093,-0.011,0.333,-0.0472727,0.538182,-0.145918
439,6.44,-0.21,0.56,-0.081,-0.011,0.349,-0.0472727,0.538182,-0.145918
440,7.49,8.47,-0.21,-0.081,-0.011,0.349,-0.0472727,0.538182,-0.145918
441,5.6,10.99,-0.14,-0.081,-0.011,0.349,-0.0472727,0.538182,-0.145918
442,1.05,-5.46,-0.91,-0.081,-0.011,0.349,-0.0472727,0.538182,-0.145918
443,-5.11,-13.16,-1.33,-0.081,-0.011,0.349,-0.0472727,0.538182,-0.145918
444,-4.27,-12.39,-1.61,-0.081,-0.011,0.349,-0.0472727,0.538182,-0.145918
445,-1.33,-6.65,-2.1,-0.081,-0.011,0.349,-0.0472727,0.538182,-0.145918
446,0.42,3.22,-1.05,-0.081,-0.011,0.349,-0.0472727,0.538182,-0.145918
447,0.49,10.64,-0.63,-0.029,-0.079,0.217,-0.0472727,0.538182,-0.145918
448,-1.33,10.36,0.07,-0.029,-0.079,0.217,-0.0472727,0.538182,-0.145918
449,-5.11,4.48,1.12,-0.029,-0.079,0.217,-0.0472727,0.538182,-0.145918
450,-7.98,-6.02,2.03,-0.029,-0.079,0.217,-0.0472727,0.538182,-0.145918
451,-9.87,-7.28,3.29,-0.029,-0.079,0.217,-0.0472727,0.538182,-0.145918
452,-9.8,-5.67,4.27,-0.029,-0.079,0.217,-0.0472727,0.538182,-0.145918
453,-9.38,-3.22,5.04,-0.029,-0.079,0.217,-0.0472727,0.538182,-0.145918
454,-10.36,-5.25,4.97,-0.029,-0.079,0.217,-0.0472727,0.538182,-0.145918
455,-10.64,-10.01,4.69,-0.057,-0.039,0.257,-0.0472727,0.538182,-0.145918
456,-9.59,-11.55,3.57,-0.057,-0.039,0.257,-0.0472727,0.538182,-0.145918
457,-6.72,-31.64,1.54,-0.057,-0.039,0.257,-0.0472727,0.538182,-0.145918
458,14.07,-17.43,1.26,-0.057,-0.039,0.257,-0.05,0.549091,-0.155102
459,1.54,-15.47,1.96,-0.057,-0.039,0.257,-0.05,0.549091,-0.155102
460,2.59,-13.93,2.73,-0.057,-0.039,0.257,-0.05,0.549091,-0.155102
461,0.49,-14.56,2.8,-0.057,-0.039,0.257,-0.05,0.549091,-0.155102
462,-1.89,-16.52,2.66,-0.057,-0.039,0.257,-0.05,0.549091,-0.155102
463,-3.85,-18.9,2.73,-0.057,-0.039,0.257,-0.05,0.549091,-0.155102
464,-5.81,-21.28,3.15,-0.037,-0.023,0.257,-0.05,0.549091,-0.155102
465,-7.49,-11.2,3.43,-0.037,-0.023,0.257,-0.05,0.549091,-0.155102
466,-12.53,-0.21,3.78,-0.037,-0.023,0.257,-0.05,0.549091,-0.155102
467,-16.59,7.91,4.13,-0.037,-0.023,0.257,-0.05,0.549091,-0.155102
468,-21.91,7.98,4.41,-0.037,-0.023,0.257,-0.05,0.549091,-0.155102
469,-27.23,3.01,3.85,-0.037,-0.023,0.257,-0.0527273,0.541818,-0.159184
470,-32.55,-3.85,3.29,-0.037,-0.023,0.257,-0.0527273,0.541818,-0.159184
471,-35.98,-12.11,3.36,-0.037,-0.023,0.257,-0.0527273,0.541818,-0.159184
472,-35.14,-13.79,4.55,-0.017,-0.107,0.293,-0.0527273,0.541818,-0.159184
473,-31.08,-15.89,5.11,-0.017,-0.107,0.293,-0.0527273,0.541818,-0.159184
474,-23.59,-13.72,6.37,-0.017,-0.107,0.293,-0.0527273,0.541818,-0.159184
475,-21.28,-9.94,7.49,-0.017,-0.107,0.293,-0.0527273,0.541818,-0.159184
476,-18.9,-3.92,7.49,-0.017,-0.107,0.293,-0.0527273,0.541818,-0.159184
477,-15.12,2.03,6.51,-0.017,-0.107,0.293,-0.0527273,0.541818,-0.159184
478,-11.83,4.69,4.9,-0.017,-0.107,0.293,-0.0527273,0.541818,-0.159184
479,-8.96,3.5,2.8,-0.017,-0.107,0.293,-0.0527273,0.541818,-0.159184
480,-5.32,6.51,3.08,-0.021,-0.127,0.245,-0.0527273,0.541818,-0.159184
481,2.52,9.24,3.99,-0.021,-0.127,0.245,-0.0527273,0.541818,-0.159184
482,3.92,12.88,5.95,-0.021,-0.127,0.245,-0.0527273,0.541818,-0.159184
483,3.43,14.49,8.26,-0.021,-0.127,0.245,-0.0527273,0.541818,-0.159184
484,2.24,5.74,9.73,-0.021,-0.127,0.245,-0.0527273,0.541818,-0.159184
485,1.33,-0.91,10.43,-0.021,-0.127,0.245,-0.0527273,0.541818,-0.159184
486,4.76,1.12,11.83,-0.021,-0.127,0.245,-0.0527273,0.541818,-0.159184
487,12.32,4.9,10.57,-0.021,-0.127,0.245,-0.0527273,0.541818,-0.159184
488,23.8,2.38,8.26,-0.021,-0.127,0.129,-0.0527273,0.541818,-0.159184
489,23.73,-1.26,5.95,-0.017,-0.103,0.129,-0.0527273,0.541818,-0.159184
490,20.86,-9.17,3.22,-0.017,-0.103,0.129,-0.0527273,0.541818,-0.159184
491,17.01,-16.87,0.35,-0.017,-0.103,0.129,-0.0527273,0.541818,-0.159184
492,12.95,-21.21,-1.19,-0.017,-0.103,0.129,-0.104545,0.554545,-0.157143
493,9.38,-23.1,-1.54,-0.017,-0.103,0.129,-0.104545,0.554545,-0.157143
494,5.11,-24.85,0.21,-0.017,-0.103,0.129,-0.104545,0.554545,-0.157143
495,2.66,-8.96,1.68,-0.017,-0.103,0.129,-0.104545,0.554545,-0.157143
496,6.16,7.91,2.8,-0.017,-0.103,0.129,-0.104545,0.554545,-0.157143
497,8.68,25.76,3.71,-0.021,-0.047,0.145,-0.104545,0.554545,-0.157143
498,9.1,34.02,3.78,-0.021,-0.047,0.145,-0.104545,0.554545,-0.157143
499,7.98,31.64,4.06,-0.021,-0.047,0.145,-0.104545,0.554545,-0.157143
500,6.23,22.33,3.92,-0.021,-0.047,0.145,-0.104545,0.554545,-0.157143
501,2.52,7.63,-0.07,-0.021,-0.047,0.145,-0.104545,0.554545,-0.157143
502,0.35,-23.45,-0.56,-0.021,-0.047,0.145,-0.104545,0.554545,-0.157143
503,3.78,-29.05,-0.07,-0.021,-0.047,0.145,-0.104545,0.554545,-0.157143
504,7.49,-26.25,0.28,-0.021,-0.047,0.145,-0.104545,0.554545,-0.157143
505,9.66,-17.01,0.28,0.039,-0.095,0.157,-0.104545,0.554545,-0.157143
506,11.13,-5.39,1.05,0.039,-0.095,0.157,-0.104545,0.554545,-0.157143
507,12.32,6.09,2.66,0.039,-0.095,0.157,-0.104545,0.554545,-0.157143
508,12.81,12.18,3.01,0.039,-0.095,0.157,-0.104545,0.554545,-0.157143
509,11.76,5.74,3.36,0.039,-0.095,0.157,-0.104545,0.554545,-0.157143
510,9.94,3.64,4.55,0.039,-0.095,0.157,-0.104545,0.554545,-0.157143
511,8.47,-1.4,4.2,0.039,-0.095,0.157,-0.104545,0.554545,-0.157143
512,6.3,-7.14,2.38,0.039,-0.095,0.157,-0.104545,0.554545,-0.157143
513,7,-6.3,2.17,-0.025,-0.075,0.261,-0.104545,0.554545,-0.157143
514,9.45,-1.26,2.17,-0.025,-0.075,0.261,-0.104545,0.554545,-0.157143
515,11.55,3.85,-16.1,-0.025,-0.075,0.261,-0.104545,0.554545,-0.157143
516,12.53,6.23,0.7,-0.025,-0.075,0.261,-0.104545,0.554545,-0.157143
517,10.64,5.53,1.05,-0.025,-0.075,0.261,-0.104545,0.554545,-0.157143
518,9.94,5.11,1.61,-0.025,-0.075,0.261,-0.104545,0.554545,-0.157143
519,8.68,3.08,1.05,-0.025,-0.075,0.261,-0.104545,0.554545,-0.157143
520,7.7,1.12,0.28,-0.025,-0.075,0.261,-0.104545,0.554545,-0.157143
521,5.67,0.98,-0.28,-0.025,-0.075,0.261,-0.104545,0.554545,-0.157143
522,4.2,1.26,-0.49,-0.029,-0.047,0.193,-0.104545,0.554545,-0.157143
523,2.17,2.1,1.26,-0.029,-0.047,0.193,-0.104545,0.554545,-0.157143
524,0.21,5.18,2.66,-0.029,-0.047,0.193,-0.104545,0.554545,-0.157143
525,-1.47,6.86,3.29,-0.029,-0.047,0.193,-0.104545,0.554545,-0.157143
526,-3.01,4.76,2.87,-0.029,-0.047,0.193,-0.15,0.552727,-0.142857
527,-4.2,3.08,2.17,-0.029,-0.047,0.193,-0.15,0.552727,-0.142857
528,-4.13,1.82,1.96,-0.029,-0.047,0.193,-0.15,0.552727,-0.142857
529,-3.92,-0.56,0.84,-0.029,-0.047,0.193,-0.15,0.552727,-0.142857
530,-3.71,-4.13,0.49,-0.021,-0.071,0.249,-0.15,0.552727,-0.142857
531,-2.94,-5.39,0.98,-0.021,-0.071,0.249,-0.15,0.552727,-0.142857
532,15.54,-5.39,0.84,-0.021,-0.071,0.249,-0.15,0.552727,-0.142857
533,1.89,-2.31,0.7,-0.021,-0.071,0.249,-0.15,0.552727,-0.142857
534,4.41,0.77,1.12,-0.021,-0.071,0.249,-0.15,0.552727,-0.142857
535,6.58,3.99,2.31,-0.021,-0.071,0.249,-0.15,0.552727,-0.142857
536,8.4,6.09,2.38,-0.021,-0.071,0.249,-0.15,0.552727,-0.142857
537,7.42,3.5,1.89,-0.021,-0.071,0.249,-0.15,0.552727,-0.142857
538,6.65,1.33,0.7,-0.025,-0.059,0.245,-0.15,0.552727,-0.142857
539,6.51,-0.77,0.98,-0.025,-0.059,0.245,-0.15,0.552727,-0.142857
540,6.3,-0.42,1.26,-0.025,-0.059,0.245,-0.15,0.552727,-0.142857
541,4.97,-0.84,1.12,-0.025,-0.059,0.245,-0.15,0.552727,-0.142857
542,3.99,-1.19,1.12,-0.025,-0.059,0.245,-0.15,0.552727,-0.142857
543,3.15,-0.91,1.47,-0.025,-0.059,0.245,-0.15,0.552727,-0.142857
544,2.24,-0.28,1.68,-0.025,-0.059,0.245,-0.15,0.552727,-0.142857
545,0.56,-0.56,1.47,-0.025,-0.059,0.245,-0.15,0.552727,-0.142857
546,-1.75,-0.77,1.47,-0.025,-0.059,0.245,-0.15,0.552727,-0.142857
547,-3.5,-0.49,1.33,-0.017,-0.087,0.249,-0.15,0.552727,-0.142857
548,-4.2,-0.84,1.12,-0.017,-0.087,0.249,-0.15,0.552727,-0.142857
549,-4.48,-1.61,1.05,-0.017,-0.087,0.249,-0.152727,0.554545,-0.139796
550,-4.48,-1.61,1.19,-0.017,-0.087,0.249,-0.152727,0.554545,-0.139796
551,-4.55,-0.77,1.33,-0.017,-0.087,0.249,-0.152727,0.554545,-0.139796
552,-4.41,-0.63,1.61,-0.017,-0.087,0.249,-0.152727,0.554545,-0.139796
553,-4.62,-1.12,0.42,-0.017,-0.087,0.249,-0.152727,0.554545,-0.139796
554,-4.34,-1.96,0.42,-0.017,-0.087,0.249,-0.152727,0.554545,-0.139796
555,-4.2,-2.17,0.42,-0.005,-0.143,0.245,-0.152727,0.554545,-0.139796
556,-4.06,-2.52,0.7,-0.005,-0.143,0.245,-0.152727,0.554545,-0.139796
557,-3.99,-1.61,0.91,-0.005,-0.143,0.245,-0.152727,0.554545,-0.139796
558,-3.57,-0.14,0.91,-0.005,-0.143,0.245,-0.152727,0.554545,-0.139796
559,-2.94,0.98,0.7,-0.005,-0.143,0.245,-0.152727,0.554545,-0.139796
560,-1.75,1.19,0.77,-0.005,-0.143,0.245,-0.151818,0.555455,-0.141837
561,-1.12,0.84,0.35,-0.005,-0.143,0.245,-0.151818,0.555455,-0.141837
562,-0.42,-1.54,-0.63,-0.005,-0.143,0.245,-0.151818,0.555455,-0.141837
563,-1.89,-2.52,-1.33,-0.025,-0.123,0.253,-0.151818,0.555455,-0.141837
564,-1.4,-3.01,-1.75,-0.025,-0.123,0.253,-0.151818,0.555455,-0.141837
565,-1.19,-3.99,-2.17,-0.025,-0.123,0.253,-0.151818,0.555455,-0.141837
566,-0.56,-4.2,-2.31,-0.025,-0.123,0.253,-0.151818,0.555455,-0.141837
567,-0.84,-3.22,-2.31,-0.025,-0.123,0.253,-0.151818,0.555455,-0.141837
568,-1.47,-2.31,-2.17,-0.025,-0.123,0.253,-0.151818,0.555455,-0.141837
569,-2.66,2.31,-2.17,-0.025,-0.123,0.253,-0.151818,0.555455,-0.141837
570,-3.15,3.29,-3.64,-0.025,-0.123,0.253,-0.151818,0.555455,-0.141837
571,-2.31,2.24,-4.48,-0.025,-0.123,0.241,-0.151818,0.555455,-0.141837
572,-1.68,0.91,-5.39,-0.009,-0.123,0.241,-0.151818,0.555455,-0.141837
573,-0.7,-0.77,-6.16,-0.009,-0.123,0.241,-0.151818,0.555455,-0.141837
574,0.14,-1.54,-6.44,-0.009,-0.123,0.241,-0.151818,0.555455,-0.141837
575,0.56,-2.52,-7,-0.009,-0.123,0.241,-0.151818,0.555455,-0.141837
576,0.35,-4.27,-7.56,-0.009,-0.123,0.241,-0.151818,0.555455,-0.141837
577,2.52,-5.46,-8.19,-0.009,-0.123,0.241,-0.151818,0.555455,-0.141837
578,3.71,-5.74,-9.31,-0.009,-0.123,0.241,-0.151818,0.555455,-0.141837
579,3.78,-4.06,-9.45,-0.009,-0.123,0.241,-0.151818,0.555455,-0.141837
580,4.34,-1.96,-9.94,-0.141,-0.247,0.185,-0.151818,0.555455,-0.141837
581,5.81,-6.09,-12.25,-0.141,-0.247,0.185,-0.151818,0.555455,-0.141837
582,5.04,-1.68,-9.73,-0.141,-0.247,0.185,-0.151818,0.555455,-0.141837
583,8.54,5.67,-8.26,-0.141,-0.247,0.185,-0.102727,0.572727,-0.163265
584,8.26,7.49,-7.56,-0.141,-0.247,0.185,-0.102727,0.572727,-0.163265
585,6.79,7.98,-7.07,-0.141,-0.247,0.185,-0.102727,0.572727,-0.163265
586,5.53,7.84,-6.86,-0.141,-0.247,0.185,-0.102727,0.572727,-0.163265
587,4.9,7.42,-7.21,-0.141,-0.247,0.185,-0.102727,0.572727,-0.163265
588,4.76,6.23,-7.49,-0.021,-0.047,0.233,-0.102727,0.572727,-0.163265
589,3.85,6.86,-7.63,-0.021,-0.047,0.233,-0.102727,0.572727,-0.163265
590,2.73,8.47,-9.24,-0.021,-0.047,0.233,-0.102727,0.572727,-0.163265
591,2.31,7.98,-10.22,-0.021,-0.047,0.233,-0.102727,0.572727,-0.163265
592,-1.89,6.51,-9.52,-0.021,-0.047,0.233,-0.102727,0.572727,-0.163265
593,-2.8,5.53,-8.33,-0.021,-0.047,0.233,-0.102727,0.572727,-0.163265
594,-4.06,3.08,-8.05,-0.021,-0.047,0.233,-0.0581818,0.550909,-0.164286
595,-4.06,6.37,-6.79,-0.021,-0.047,0.233,-0.0581818,0.550909,-0.164286
596,-3.08,7.98,-5.6,-0.021,-0.095,0.277,-0.0581818,0.550909,-0.164286
597,-1.26,8.89,-4.13,-0.025,-0.095,0.277,-0.0581818,0.550909,-0.164286
598,-0.35,6.79,-4.9,-0.025,-0.095,0.277,-0.0581818,0.550909,-0.164286
599,-0.49,4.34,-5.46,-0.025,-0.095,0.277,-0.0581818,0.550909,-0.164286
600,0.49,3.15,-6.09,-0.025,-0.095,0.277,-0.0581818,0.550909,-0.164286
601,2.66,2.87,-7.14,-0.025,-0.095,0.277,-0.0581818,0.550909,-0.164286
602,4.2,1.05,-8.33,-0.025,-0.095,0.277,-0.0581818,0.550909,-0.164286
603,2.38,-2.38,-9.59,-0.025,-0.095,0.277,-0.0581818,0.550909,-0.164286
604,-0.21,-5.74,-8.26,-0.025,-0.095,0.293,-0.0581818,0.550909,-0.164286
605,-1.68,-3.64,-6.86,-0.017,-0.083,0.297,-0.0581818,0.550909,-0.164286
606,0.28,-1.61,-6.51,-0.017,-0.083,0.297,-0.0581818,0.550909,-0.164286
607,0.7,-0.84,-6.65,-0.017,-0.083,0.297,-0.0581818,0.550909,-0.164286
608,0.56,0.42,-6.79,-0.017,-0.083,0.297,-0.0581818,0.550909,-0.164286
609,0.14,1.4,-6.65,-0.017,-0.083,0.297,-0.0581818,0.550909,-0.164286
610,-0.77,0.07,-7.7,-0.017,-0.083,0.297,-0.0581818,0.550909,-0.164286
611,-1.26,-2.59,-11.13,-0.017,-0.083,0.297,-0.0581818,0.550909,-0.164286
612,-0.35,-8.61,-13.79,-0.017,-0.083,0.297,-0.0581818,0.550909,-0.164286
613,1.89,-10.22,-15.33,-0.033,-0.047,0.241,-0.0581818,0.550909,-0.164286
614,1.89,-9.45,-16.24,-0.033,-0.047,0.241,-0.0581818,0.550909,-0.164286
615,0.28,-7.07,-15.89,-0.033,-0.047,0.241,-0.0581818,0.550909,-0.164286
616,-0.7,-4.48,-15.33,-0.033,-0.047,0.241,-0.0581818,0.550909,-0.164286
617,-2.1,1.54,-13.79,-0.033,-0.047,0.241,0.0727273,0.555455,-0.127551
618,-2.59,7.7,-12.88,-0.033,-0.047,0.241,0.0727273,0.555455,-0.127551
619,-3.36,9.94,-15.89,-0.033,-0.047,0.241,0.0727273,0.555455,-0.127551
620,-4.62,8.05,-16.73,-0.033,-0.047,0.241,0.0727273,0.555455,-0.127551
621,-5.88,5.32,-17.15,-0.009,-0.031,0.285,0.0727273,0.555455,-0.127551
622,-7.35,2.38,-17.36,-0.009,-0.031,0.285,0.0727273,0.555455,-0.127551
623,-7.84,1.33,-17.99,-0.009,-0.031,0.285,0.0727273,0.555455,-0.127551
624,-6.86,-0.14,-19.95,-0.009,-0.031,0.285,0.0727273,0.555455,-0.127551
625,-6.37,-2.73,-21.56,-0.009,-0.031,0.285,0.0727273,0.555455,-0.127551
626,-5.39,-4.13,-21.63,-0.009,-0.031,0.285,0.0727273,0.555455,-0.127551
627,-4.06,-1.89,-20.65,-0.009,-0.031,0.285,0.0727273,0.555455,-0.127551
628,-0.63,-0.49,-19.81,-0.009,-0.031,0.285,0.0727273,0.555455,-0.127551
629,1.54,0.63,-19.39,-0.009,-0.079,0.277,0.0727273,0.555455,-0.127551
630,2.03,0.42,-19.25,-0.045,-0.075,0.277,0.0727273,0.555455,-0.127551
631,1.68,-1.54,-19.88,-0.045,-0.075,0.277,0.0727273,0.555455,-0.127551
632,1.4,-2.87,-20.51,-0.045,-0.075,0.277,0.0727273,0.555455,-0.127551
633,1.54,-3.36,-20.72,-0.045,-0.075,0.277,0.0727273,0.555455,-0.127551
634,1.82,-3.43,-20.79,-0.045,-0.075,0.277,0.0727273,0.555455,-0.127551
635,1.61,0.21,-20.72,-0.045,-0.075,0.277,0.0727273,0.555455,-0.127551
636,0.63,1.61,-20.37,-0.045,-0.075,0.277,0.0727273,0.555455,-0.127551
637,-0.84,3.01,-20.58,-0.045,-0.075,0.277,0.0727273,0.555455,-0.127551
638,-1.96,2.59,-21.21,0.043,-0.055,0.321,0.0727273,0.555455,-0.127551
639,-1.82,0.84,-21.49,0.043,-0.055,0.321,0.0727273,0.555455,-0.127551
640,-0.14,0.07,-21.21,0.043,-0.055,0.321,0.0727273,0.555455,-0.127551
641,1.12,-0.28,-21.42,0.043,-0.055,0.321,0.0727273,0.555455,-0.127551
642,1.47,-0.91,-21.91,0.043,-0.055,0.321,0.0727273,0.555455,-0.127551
643,2.45,-1.05,-22.61,0.043,-0.055,0.321,0.0727273,0.555455,-0.127551
644,4.06,-1.75,-23.73,0.043,-0.055,0.321,0.0727273,0.555455,-0.127551
645,5.18,-2.17,-25.27,0.043,-0.055,0.321,0.0727273,0.555455,-0.127551
646,5.11,-0.84,-26.18,-0.073,0.001,0.269,0.0727273,0.555455,-0.127551
647,3.85,1.19,-25.9,-0.073,0.001,0.269,0.0727273,0.555455,-0.127551
648,3.08,0.14,-25.69,-0.073,0.001,0.269,0.0727273,0.555455,-0.127551
649,1.96,-1.75,-25.27,-0.073,0.001,0.269,0.0727273,0.555455,-0.127551
650,0.49,-3.64,-24.71,-0.073,0.001,0.269,0.0727273,0.555455,-0.127551
651,1.4,-4.13,-23.8,-0.073,0.001,0.269,0.214545,0.422727,-0.0459184
652,3.01,-3.92,-22.68,-0.073,0.001,0.269,0.214545,0.422727,-0.0459184
653,3.5,-3.85,-22.05,-0.073,0.001,0.269,0.214545,0.422727,-0.0459184
654,1.96,-4.06,-22.26,-0.073,0.013,0.269,0.214545,0.422727,-0.0459184
655,0,-4.13,-22.68,-0.041,0.013,0.269,0.214545,0.422727,-0.0459184
656,-1.47,-4.69,-24.29,-0.041,0.013,0.269,0.214545,0.422727,-0.0459184
657,-1.89,-5.67,-24.92,-0.041,0.013,0.269,0.214545,0.422727,-0.0459184
658,0.98,-3.01,-24.85,-0.041,0.013,0.269,0.214545,0.422727,-0.0459184
659,0.7,-1.19,-24.78,-0.041,0.013,0.269,0.214545,0.422727,-0.0459184
660,-0.7,-0.56,-24.92,-0.041,0.013,0.269,0.214545,0.422727,-0.0459184
661,-1.68,-0.56,-24.29,-0.041,0.013,0.269,0.214545,0.422727,-0.0459184
662,-2.38,0.7,-22.12,-0.041,0.013,0.269,0.214545,0.422727,-0.0459184
663,-2.94,1.33,-20.37,-0.053,0.037,0.257,0.214545,0.422727,-0.0459184
664,-3.78,-0.77,-21.21,-0.053,0.037,0.257,0.214545,0.422727,-0.0459184
665,-3.78,-4.13,-22.54,-0.053,0.037,0.257,0.214545,0.422727,-0.0459184
666,-1.96,-5.67,-23.45,-0.053,0.037,0.257,0.214545,0.422727,-0.0459184
667,-0.63,-4.34,-23.52,-0.053,0.037,0.257,0.214545,0.422727,-0.0459184
668,-0.42,-2.59,-22.47,-0.053,0.037,0.257,0.214545,0.422727,-0.0459184
669,-1.12,-2.38,-21.14,-0.053,0.037,0.257,0.214545,0.422727,-0.0459184
670,-3.08,-3.57,-19.6,-0.053,0.037,0.257,0.214545,0.422727,-0.0459184
671,-4.55,-3.29,-14.63,-0.017,0.041,0.269,0.214545,0.422727,-0.0459184
672,-4.69,-3.99,-12.95,-0.017,0.041,0.269,0.214545,0.422727,-0.0459184
673,-3.01,-6.79,-12.11,-0.017,0.041,0.269,0.214545,0.422727,-0.0459184
674,-2.87,-7.91,-11.69,-0.017,0.041,0.269,0.315455,0.34,-0.00612245
675,-1.75,-6.93,-10.22,-0.017,0.041,0.269,0.315455,0.34,-0.00612245
676,0.49,-5.67,-9.1,-0.017,0.041,0.269,0.315455,0.34,-0.00612245
677,3.57,-4.34,-8.61,-0.017,0.041,0.269,0.315455,0.34,-0.00612245
678,6.09,-2.24,-8.19,-0.017,0.041,0.269,0.315455,0.34,-0.00612245
679,8.12,-2.03,-6.02,0.003,0.073,0.261,0.315455,0.34,-0.00612245
680,8.19,-5.11,-3.29,0.003,0.073,0.261,0.315455,0.34,-0.00612245
681,7.49,-4.55,-1.19,0.003,0.073,0.261,0.315455,0.34,-0.00612245
682,6.02,-3.22,-0.07,0.003,0.073,0.261,0.315455,0.34,-0.00612245
683,4.48,-2.03,0.42,0.003,0.073,0.261,0.315455,0.34,-0.00612245
684,2.52,-0.56,0.35,0.003,0.073,0.261,0.315455,0.34,-0.00612245
685,2.1,0.7,0.49,0.003,0.073,0.261,0.313636,0.313636,0.0102041
686,2.17,1.47,1.33,0.003,0.073,0.261,0.313636,0.313636,0.0102041
687,0.91,0.14,0.77,0.003,0.073,0.245,0.313636,0.313636,0.0102041
688,-1.19,-2.73,1.26,-0.041,0.017,0.245,0.313636,0.313636,0.0102041
689,-1.4,-3.29,2.66,-0.041,0.017,0.245,0.313636,0.313636,0.0102041
690,-2.1,-4.13,2.94,-0.041,0.017,0.245,0.313636,0.313636,0.0102041
691,-2.8,-5.53,3.22,-0.041,0.017,0.245,0.313636,0.313636,0.0102041
692,-3.01,-6.09,2.8,-0.041,0.017,0.245,0.313636,0.313636,0.0102041
693,-3.15,-5.18,2.31,-0.041,0.017,0.245,0.313636,0.313636,0.0102041
694,-2.24,-0.63,2.45,-0.041,0.017,0.245,0.313636,0.313636,0.0102041
695,-0.63,1.75,2.45,-0.041,0.017,0.245,0.313636,0.313636,0.0102041
696,-0.07,2.38,2.45,-0.001,-0.011,0.241,0.313636,0.313636,0.0102041
697,-0.63,1.12,3.08,-0.001,-0.011,0.241,0.313636,0.313636,0.0102041
698,-0.63,-0.42,2.94,-0.001,-0.011,0.241,0.313636,0.313636,0.0102041
699,-0.14,-3.15,2.52,-0.001,-0.011,0.241,0.313636,0.313636,0.0102041
700,0.35,-5.53,2.24,-0.001,-0.011,0.241,0.313636,0.313636,0.0102041
701,1.12,-6.3,4.62,-0.001,-0.011,0.241,0.313636,0.313636,0.0102041
702,2.52,-2.03,4.9,-0.001,-0.011,0.241,0.313636,0.313636,0.0102041
703,2.59,0.14,4.76,-0.001,-0.011,0.241,0.313636,0.313636,0.0102041
704,1.26,1.12,3.99,-0.017,-0.027,0.261,0.313636,0.313636,0.0102041
705,-0.49,0.35,2.8,-0.017,-0.027,0.261,0.313636,0.313636,0.0102041
706,-2.31,-1.54,2.8,-0.017,-0.027,0.261,0.313636,0.313636,0.0102041
707,-2.38,-2.38,3.71,-0.017,-0.027,0.261,0.313636,0.313636,0.0102041
708,-2.52,-3.01,4.34,-0.017,-0.027,0.261,0.319091,0.314545,0.0204082
709,-2.87,0.77,4.48,-0.017,-0.027,0.261,0.319091,0.314545,0.0204082
710,-2.87,0.91,3.99,-0.017,-0.027,0.261,0.319091,0.314545,0.0204082
711,-3.92,0.35,3.22,-0.017,-0.027,0.261,0.319091,0.314545,0.0204082
712,-5.11,-0.63,2.8,-0.017,-0.027,0.281,0.319091,0.314545,0.0204082
713,-6.72,-1.68,2.87,-0.013,-0.059,0.281,0.319091,0.314545,0.0204082
714,-8.75,-2.24,1.26,-0.013,-0.059,0.281,0.319091,0.314545,0.0204082
715,-8.4,-2.31,0.91,-0.013,-0.059,0.281,0.319091,0.314545,0.0204082
716,-7.28,-2.38,0.35,-0.013,-0.059,0.281,0.319091,0.314545,0.0204082
717,-5.88,-1.47,-0.35,-0.013,-0.059,0.281,0.319091,0.314545,0.0204082
718,-4.55,-0.7,0,-0.013,-0.059,0.281,0.319091,0.314545,0.0204082
719,-4.2,-1.61,0.56,-0.013,-0.059,0.281,0.323636,0.311818,0.0316327
720,-4.9,-4.76,1.26,-0.013,-0.075,0.261,0.323636,0.311818,0.0316327
721,-5.46,-7.42,2.1,0.003,-0.083,0.261,0.323636,0.311818,0.0316327
722,-3.92,-6.51,2.66,0.003,-0.083,0.261,0.323636,0.311818,0.0316327
723,-4.13,-4.76,1.33,0.003,-0.083,0.261,0.323636,0.311818,0.0316327
724,-5.39,-2.73,0.42,0.003,-0.083,0.261,0.323636,0.311818,0.0316327
725,-6.3,-2.24,-0.91,0.003,-0.083,0.261,0.323636,0.311818,0.0316327
726,-6.51,-1.96,-1.68,0.003,-0.083,0.261,0.323636,0.311818,0.0316327
727,-6.58,-1.89,-0.35,0.003,-0.083,0.261,0.323636,0.311818,0.0316327
728,-5.25,-3.22,1.82,0.003,-0.083,0.261,0.323636,0.311818,0.0316327
729,-3.36,-4.97,3.01,-0.021,-0.055,0.293,0.323636,0.311818,0.0316327
730,-3.71,-6.72,3.43,-0.021,-0.055,0.293,0.323636,0.311818,0.0316327
731,-3.57,-7.42,3.36,-0.021,-0.055,0.293,0.323636,0.311818,0.0316327
732,-0.77,-5.6,3.15,-0.021,-0.055,0.293,0.323636,0.311818,0.0316327
733,2.1,-3.43,2.52,-0.021,-0.055,0.293,0.323636,0.311818,0.0316327
734,2.17,-2.38,1.89,-0.021,-0.055,0.293,0.323636,0.311818,0.0316327
735,1.54,17.99,1.61,-0.021,-0.055,0.293,0.323636,0.311818,0.0316327
736,0.63,2.94,1.96,-0.021,-0.055,0.293,0.323636,0.311818,0.0316327
737,-1.26,2.94,2.52,-0.021,-0.063,0.285,0.323636,0.311818,0.0316327
738,-1.47,3.64,3.36,-0.021,-0.063,0.285,0.323636,0.311818,0.0316327
739,-1.05,4.34,3.99,-0.021,-0.063,0.285,0.323636,0.311818,0.0316327
740,-1.12,2.8,4.27,-0.021,-0.063,0.285,0.323636,0.311818,0.0316327
741,-1.75,0.77,4.41,-0.021,-0.063,0.285,0.323636,0.311818,0.0316327
742,-2.8,-2.87,6.16,-0.021,-0.063,0.285,0.323636,0.311818,0.0316327
743,-4.69,-3.85,6.44,-0.021,-0.063,0.285,0.323636,0.311818,0.0316327
744,-5.39,-2.66,5.88,-0.021,-0.063,0.285,0.323636,0.311818,0.0316327
745,-5.46,0.35,5.74,-0.001,-0.091,0.281,0.323636,0.311818,0.0316327
746,-4.41,1.68,5.95,-0.001,-0.091,0.281,0.323636,0.311818,0.0316327
747,-3.29,1.82,5.04,-0.001,-0.091,0.281,0.323636,0.311818,0.0316327
748,-1.19,1.47,4.62,-0.001,-0.091,0.281,0.323636,0.311818,0.0316327
749,0.21,0.14,3.71,-0.001,-0.091,0.281,0.323636,0.311818,0.0316327
750,-0.07,-5.81,3.85,-0.001,-0.091,0.281,0.323636,0.311818,0.0316327
751,-2.52,-8.89,3.92,-0.001,-0.091,0.281,0.323636,0.311818,0.0316327
752,-1.61,-10.92,4.41,-0.001,-0.091,0.281,0.323636,0.311818,0.0316327
753,-0.21,-10.57,4.69,-0.001,-0.091,0.249,0.195455,0.296364,0.116327
754,1.82,-9.24,4.97,-0.021,-0.071,0.253,0.195455,0.296364,0.116327
755,3.36,-7.42,5.04,-0.021,-0.071,0.253,0.195455,0.296364,0.116327
756,3.08,-5.81,3.99,-0.021,-0.071,0.253,0.195455,0.296364,0.116327
757,2.17,-4.41,4.9,-0.021,-0.071,0.253,0.195455,0.296364,0.116327
758,3.08,-3.85,4.83,-0.021,-0.071,0.253,0.195455,0.296364,0.116327
759,18.34,2.24,2.17,-0.021,-0.071,0.253,0.195455,0.296364,0.116327
760,34.86,7.56,0.63,-0.021,-0.071,0.253,0.195455,0.296364,0.116327
761,44.31,8.19,-0.14,-0.021,-0.071,0.253,0.195455,0.296364,0.116327
762,48.23,7,-0.49,-0.013,-0.071,0.121,0.195455,0.296364,0.116327
763,45.92,4.9,0.63,-0.013,-0.071,0.121,0.195455,0.296364,0.116327
764,40.74,1.54,3.5,-0.013,-0.071,0.121,0.195455,0.296364,0.116327
765,18.9,3.57,4.06,-0.013,-0.071,0.121,0.195455,0.296364,0.116327
766,18.97,2.66,5.04,-0.013,-0.071,0.121,0.195455,0.296364,0.116327
767,8.82,0.21,6.93,-0.013,-0.071,0.121,0.195455,0.296364,0.116327
768,-0.98,-1.82,8.96,-0.013,-0.071,0.121,0.195455,0.296364,0.116327
769,-6.23,-1.19,9.24,-0.013,-0.071,0.121,0.195455,0.296364,0.116327
770,-8.26,1.61,8.05,-0.029,-0.039,0.269,0.195455,0.296364,0.116327
771,-6.86,4.34,5.53,-0.029,-0.039,0.269,0.195455,0.296364,0.116327
772,-2.45,7.7,4.97,-0.029,-0.039,0.269,0.195455,0.296364,0.116327
773,7.28,8.96,5.04,-0.029,-0.039,0.269,0.195455,0.296364,0.116327
774,11.69,7.56,5.39,-0.029,-0.039,0.269,0.195455,0.296364,0.116327
775,15.33,5.04,4.69,-0.029,-0.039,0.269,0.195455,0.296364,0.116327
776,16.38,2.31,4.2,-0.029,-0.039,0.269,0.125455,0.28,0.114286
777,14.63,1.89,4.2,-0.029,-0.039,0.269,0.125455,0.28,0.114286
778,10.29,4.13,4.2,-0.029,0.025,0.177,0.125455,0.28,0.114286
779,4.06,-0.14,6.23,0.031,0.017,0.177,0.125455,0.28,0.114286
780,-2.66,-7.91,6.65,0.031,0.017,0.177,0.125455,0.28,0.114286
781,-4.06,-13.23,5.04,0.031,0.017,0.177,0.125455,0.28,0.114286
782,-5.25,-13.23,2.87,0.031,0.017,0.177,0.125455,0.28,0.114286
783,-3.15,-7.49,0.63,0.031,0.017,0.177,0.125455,0.28,0.114286
784,-0.35,-4.83,1.19,0.031,0.017,0.177,0.125455,0.28,0.114286
785,6.16,-6.02,-1.33,0.031,0.017,0.177,0.125455,0.28,0.114286
786,12.25,2.52,0.49,0.031,0.017,0.177,0.125455,0.28,0.114286
