reno - sacramento 19 13
sacramento - san francisco 4     2 noches 13 - 15
san francisco - san jose 9       
san jose - los angeles 29
los angeles - las vegas 25
las vegas - reno 25

Total = 111

270 hospedajes

600

